{
  "version-0.40.0/docs": [
    {
      "collapsed": true,
      "type": "category",
      "label": "Intro",
      "items": [
        {
          "type": "doc",
          "id": "version-0.40.0/intro/introduction"
        },
        {
          "type": "doc",
          "id": "version-0.40.0/intro/installation"
        },
        {
          "type": "doc",
          "id": "version-0.40.0/intro/editor-support"
        }
      ]
    },
    {
      "collapsed": true,
      "type": "category",
      "label": "Language Basics",
      "items": [
        {
          "type": "doc",
          "id": "version-0.40.0/language-basics/types"
        },
        {
          "type": "doc",
          "id": "version-0.40.0/language-basics/constants-and-variables"
        },
        {
          "type": "doc",
          "id": "version-0.40.0/language-basics/math-numbers-tez"
        },
        {
          "type": "doc",
          "id": "version-0.40.0/language-basics/strings-bytes"
        },
        {
          "type": "doc",
          "id": "version-0.40.0/language-basics/functions"
        },
        {
          "type": "doc",
          "id": "version-0.40.0/language-basics/boolean-if-else"
        },
        {
          "type": "doc",
          "id": "version-0.40.0/language-basics/loops"
        },
        {
          "type": "doc",
          "id": "version-0.40.0/language-basics/unit-option-pattern-matching"
        },
        {
          "type": "doc",
          "id": "version-0.40.0/language-basics/maps-records"
        },
        {
          "type": "doc",
          "id": "version-0.40.0/language-basics/sets-lists-tuples"
        },
        {
          "type": "doc",
          "id": "version-0.40.0/language-basics/exceptions"
        },
        {
          "type": "doc",
          "id": "version-0.40.0/language-basics/modules"
        },
        {
          "type": "doc",
          "id": "version-0.40.0/language-basics/tezos-specific"
        }
      ]
    },
    {
      "collapsed": true,
      "type": "category",
      "label": "Advanced",
      "items": [
        {
          "type": "doc",
          "id": "version-0.40.0/advanced/timestamps-addresses"
        },
        {
          "type": "doc",
          "id": "version-0.40.0/advanced/entrypoints-contracts"
        },
        {
          "type": "doc",
          "id": "version-0.40.0/advanced/include"
        },
        {
          "type": "doc",
          "id": "version-0.40.0/advanced/first-contract"
        },
        {
          "type": "doc",
          "id": "version-0.40.0/advanced/michelson-and-ligo"
        },
        {
          "type": "doc",
          "id": "version-0.40.0/advanced/polymorphism"
        },
        {
          "type": "doc",
          "id": "version-0.40.0/advanced/testing"
        },
        {
          "type": "doc",
          "id": "version-0.40.0/advanced/mutation-testing"
        },
        {
          "type": "doc",
          "id": "version-0.40.0/advanced/michelson_testing"
        },
        {
          "type": "doc",
          "id": "version-0.40.0/advanced/inline"
        },
        {
          "type": "doc",
          "id": "version-0.40.0/advanced/interop"
        },
        {
          "type": "doc",
          "id": "version-0.40.0/advanced/embedded-michelson"
        },
        {
          "type": "doc",
          "id": "version-0.40.0/advanced/package-management"
        },
        {
          "type": "doc",
          "id": "version-0.40.0/advanced/global-constants"
        }
      ]
    },
    {
      "collapsed": true,
      "type": "category",
      "label": "Reference",
      "items": [
        {
          "type": "doc",
          "id": "version-0.40.0/api/cli-commands"
        },
        {
          "type": "doc",
          "id": "version-0.40.0/api/cheat-sheet"
        }
      ]
    },
    {
      "collapsed": true,
      "type": "category",
      "label": "Command Line Options",
      "items": [
        {
          "type": "doc",
          "id": "version-0.40.0/manpages/ligo"
        },
        {
          "type": "doc",
          "id": "version-0.40.0/manpages/changelog"
        },
        {
          "type": "doc",
          "id": "version-0.40.0/manpages/compile constant"
        },
        {
          "type": "doc",
          "id": "version-0.40.0/manpages/compile contract"
        },
        {
          "type": "doc",
          "id": "version-0.40.0/manpages/compile expression"
        },
        {
          "type": "doc",
          "id": "version-0.40.0/manpages/compile parameter"
        },
        {
          "type": "doc",
          "id": "version-0.40.0/manpages/compile storage"
        },
        {
          "type": "doc",
          "id": "version-0.40.0/manpages/info get-scope"
        },
        {
          "type": "doc",
          "id": "version-0.40.0/manpages/info list-declarations"
        },
        {
          "type": "doc",
          "id": "version-0.40.0/manpages/info measure-contract"
        },
        {
          "type": "doc",
          "id": "version-0.40.0/manpages/install"
        },
        {
          "type": "doc",
          "id": "version-0.40.0/manpages/mutate ast"
        },
        {
          "type": "doc",
          "id": "version-0.40.0/manpages/mutate cst"
        },
        {
          "type": "doc",
          "id": "version-0.40.0/manpages/print ast-aggregated"
        },
        {
          "type": "doc",
          "id": "version-0.40.0/manpages/print ast-combined"
        },
        {
          "type": "doc",
          "id": "version-0.40.0/manpages/print ast-core"
        },
        {
          "type": "doc",
          "id": "version-0.40.0/manpages/print ast-imperative"
        },
        {
          "type": "doc",
          "id": "version-0.40.0/manpages/print ast-sugar"
        },
        {
          "type": "doc",
          "id": "version-0.40.0/manpages/print ast-typed"
        },
        {
          "type": "doc",
          "id": "version-0.40.0/manpages/print cst"
        },
        {
          "type": "doc",
          "id": "version-0.40.0/manpages/print dependency-graph"
        },
        {
          "type": "doc",
          "id": "version-0.40.0/manpages/print mini-c"
        },
        {
          "type": "doc",
          "id": "version-0.40.0/manpages/print preprocessed"
        },
        {
          "type": "doc",
          "id": "version-0.40.0/manpages/print pretty"
        },
        {
          "type": "doc",
          "id": "version-0.40.0/manpages/repl"
        },
        {
          "type": "doc",
          "id": "version-0.40.0/manpages/run dry-run"
        },
        {
          "type": "doc",
          "id": "version-0.40.0/manpages/run evaluate-call"
        },
        {
          "type": "doc",
          "id": "version-0.40.0/manpages/run evaluate-expr"
        },
        {
          "type": "doc",
          "id": "version-0.40.0/manpages/run interpret"
        },
        {
          "type": "doc",
          "id": "version-0.40.0/manpages/run test"
        },
        {
          "type": "doc",
          "id": "version-0.40.0/manpages/transpile contract"
        },
        {
          "type": "doc",
          "id": "version-0.40.0/manpages/transpile expression"
        }
      ]
    },
    {
      "collapsed": true,
      "type": "category",
      "label": "API",
      "items": [
        {
          "type": "doc",
          "id": "version-0.40.0/reference/toplevel"
        },
        {
          "type": "doc",
          "id": "version-0.40.0/reference/big-map-reference"
        },
        {
          "type": "doc",
          "id": "version-0.40.0/reference/bitwise-reference"
        },
        {
          "type": "doc",
          "id": "version-0.40.0/reference/bytes-reference"
        },
        {
          "type": "doc",
          "id": "version-0.40.0/reference/crypto-reference"
        },
        {
          "type": "doc",
          "id": "version-0.40.0/reference/list-reference"
        },
        {
          "type": "doc",
          "id": "version-0.40.0/reference/map-reference"
        },
        {
          "type": "doc",
          "id": "version-0.40.0/reference/set-reference"
        },
        {
          "type": "doc",
          "id": "version-0.40.0/reference/string-reference"
        },
        {
          "type": "doc",
          "id": "version-0.40.0/reference/option-reference"
        },
        {
          "type": "doc",
          "id": "version-0.40.0/reference/current-reference"
        },
        {
          "type": "doc",
          "id": "version-0.40.0/reference/test"
        }
      ]
    },
    {
      "collapsed": true,
      "type": "category",
      "label": "Protocol Upgrades",
      "items": [
        {
          "type": "doc",
          "id": "version-0.40.0/protocol/hangzhou"
        },
        {
          "type": "doc",
          "id": "version-0.40.0/protocol/ithaca"
        }
      ]
    }
  ],
  "version-0.40.0/contributors-docs": [
    {
      "collapsed": true,
      "type": "category",
      "label": "Introduction",
      "items": [
        {
          "type": "doc",
          "id": "version-0.40.0/contributors/origin"
        },
        {
          "type": "doc",
          "id": "version-0.40.0/contributors/philosophy"
        },
        {
          "type": "doc",
          "id": "version-0.40.0/contributors/getting-started"
        },
        {
          "type": "doc",
          "id": "version-0.40.0/contributors/documentation-and-releases"
        }
      ]
    },
    {
      "collapsed": true,
      "type": "category",
      "label": "Big Picture",
      "items": [
        {
          "type": "doc",
          "id": "version-0.40.0/contributors/big-picture/overview"
        },
        {
          "type": "doc",
          "id": "version-0.40.0/contributors/big-picture/front-end"
        },
        {
          "type": "doc",
          "id": "version-0.40.0/contributors/big-picture/middle-end"
        },
        {
          "type": "doc",
          "id": "version-0.40.0/contributors/big-picture/back-end"
        },
        {
          "type": "doc",
          "id": "version-0.40.0/contributors/big-picture/vendors"
        }
      ]
    },
    {
      "collapsed": true,
      "type": "category",
      "label": "Road Map",
      "items": [
        {
          "type": "doc",
          "id": "version-0.40.0/contributors/road-map/short-term"
        },
        {
          "type": "doc",
          "id": "version-0.40.0/contributors/road-map/long-term"
        }
      ]
    }
  ],
  "version-0.40.0/tutorials": [
    {
      "collapsed": true,
      "type": "category",
      "label": "Get-started",
      "items": [
        {
          "type": "doc",
          "id": "version-0.40.0/tutorials/getting-started/getting-started"
        }
      ]
    },
    {
      "collapsed": true,
      "type": "category",
      "label": "First-contract",
      "items": [
        {
          "type": "doc",
          "id": "version-0.40.0/tutorials/taco-shop/tezos-taco-shop-smart-contract"
        },
        {
          "type": "doc",
          "id": "version-0.40.0/tutorials/taco-shop/tezos-taco-shop-payout"
        }
      ]
    },
    {
      "collapsed": true,
      "type": "category",
      "label": "Migrating from Ethereum",
      "items": [
        {
          "type": "doc",
          "id": "version-0.40.0/tutorials/tz-vs-eth/tz-vs-eth"
        }
      ]
    },
    {
      "collapsed": true,
      "type": "category",
      "label": "Inter-contract invocations",
      "items": [
        {
          "type": "doc",
          "id": "version-0.40.0/tutorials/inter-contract-calls/inter-contract-calls"
        }
      ]
    },
    {
      "collapsed": true,
      "type": "category",
      "label": "Security",
      "items": [
        {
          "type": "doc",
          "id": "version-0.40.0/tutorials/security/security"
        }
      ]
    },
    {
      "collapsed": true,
      "type": "category",
      "label": "Optimisation",
      "items": [
        {
          "type": "doc",
          "id": "version-0.40.0/tutorials/optimisation/optimisation"
        }
      ]
    }
  ]
}
